{
  "project_info": {
    "project_number": "595143431501",
    "firebase_url": "https://planning-gooapps.firebaseio.com",
    "project_id": "planning-gooapps",
    "storage_bucket": "planning-gooapps.appspot.com"
  },
  "client": [
    {
      "client_info": {
        "mobilesdk_app_id": "1:595143431501:android:4ad949c6cc4d3a6fa6d304",
        "android_client_info": {
          "package_name": "com.gooapps.myplanning"
        }
      },
      "oauth_client": [
        {
          "client_id": "595143431501-cau4tqcjbnieddcrgvucjiuf53hlbcm6.apps.googleusercontent.com",
          "client_type": 3
        }
      ],
      "api_key": [
        {
          "current_key": "AIzaSyA5kC_8xiZRe71lXy80AmrlGLnKxjU-wQE"
        }
      ],
      "services": {
        "appinvite_service": {
          "other_platform_oauth_client": [
            {
              "client_id": "595143431501-cau4tqcjbnieddcrgvucjiuf53hlbcm6.apps.googleusercontent.com",
              "client_type": 3
            },
            {
              "client_id": "595143431501-mgcp2hr4k1uhtsv8mpul3pfocu2emjss.apps.googleusercontent.com",
              "client_type": 2,
              "ios_info": {
                "bundle_id": "com.gooapps.myplanning"
              }
            }
          ]
        }
      }
    }
  ],
  "configuration_version": "1"
}